<?xml version="1.0" encoding="utf-8"?>
<!-- Generator: Adobe Illustrator 20.0.0, SVG Export Plug-In . SVG Version: 6.00 Build 0)  -->
<svg version="1.1" id="Layer_1" xmlns="http://www.w3.org/2000/svg" xmlns:xlink="http://www.w3.org/1999/xlink" x="0px" y="0px"
	 width="69.7px" height="85px" viewBox="0 0 69.7 85" style="enable-background:new 0 0 69.7 85;" xml:space="preserve">
<style type="text/css">
	.st0{fill:none;}
	.st1{fill:#231F20;}
	.st2{fill:#FFFFFF;stroke:#231F20;stroke-width:2;stroke-linecap:round;stroke-linejoin:round;stroke-miterlimit:10;}
	.st3{fill:#FFCC04;}
</style>
<g>
	<path class="st0" d="M67,40.8c0.9-0.9,0.9-2.5,0-3.4l-8-8L32.5,75.3L67,40.8z"/>
	<path class="st1" d="M28.3,82.2c-0.1,0.1-0.1,0.2-0.2,0.3c0.2-0.2,0.3-0.4,0.4-0.6L28.3,82.2z"/>
	<path class="st1" d="M24.7,84.9C24.4,85,24.2,85,24,85C24.2,85,24.4,85,24.7,84.9z"/>
	<path class="st1" d="M23.9,85C23.9,85,24,85,23.9,85L23.9,85C23.8,85,23.9,85,23.9,85z"/>
	<path class="st1" d="M26.3,81.4c0,0.1-0.1,0.2-0.2,0.3c0.1-0.1,0.2-0.2,0.3-0.3c0-0.1,0.1-0.2,0.1-0.3L26.3,81.4z"/>
	<polygon class="st1" points="28.8,80.2 29.3,78.4 28.8,78.9 	"/>
	<path class="st1" d="M27.7,83.1c-0.4,0.5-0.9,1-1.5,1.4c-0.5,0.3-1,0.4-1.5,0.5c1.5-0.2,2.7-1.1,3.5-2.3
		C28,82.8,27.8,82.9,27.7,83.1z"/>
	<polygon class="st1" points="24,85 24,85 24,85 	"/>
	<path class="st1" d="M28,82.6c-0.1,0.2-0.2,0.3-0.3,0.5c0.2-0.1,0.3-0.3,0.5-0.5c0.1-0.1,0.1-0.2,0.2-0.3L28,82.6z"/>
	<path class="st1" d="M28.8,80.2l-0.4,1.5c-0.1,0.3-0.2,0.7-0.4,1l0.4-0.4C28.6,81.6,28.8,80.9,28.8,80.2L28.8,80.2z"/>
	<path class="st1" d="M24.3,83c-0.1,0-0.1,0-0.2,0C24.1,83,24.2,83,24.3,83z"/>
	<path class="st1" d="M26.5,81.4c0.1-0.1,0.3-0.3,0.4-0.5l0.1-0.2l-0.3,0.3C26.6,81.2,26.6,81.3,26.5,81.4z"/>
	<path class="st1" d="M22.4,83.6l-0.8-0.4c0.8,0.7,1.8,1.1,2.9,1.1c0.3,0,0.7-0.1,1-0.1c-0.3,0.1-0.6,0.1-0.8,0.1
		C23.9,84.2,23.1,84,22.4,83.6z"/>
	<path class="st1" d="M21.4,83l0.3,0.1C21.6,83.1,21.5,83.1,21.4,83L21.4,83z"/>
	<path class="st1" d="M25.5,84.1c0.8-0.1,1.5-0.5,2.1-1c0.1-0.2,0.2-0.3,0.3-0.5l-0.4,0.4C27,83.5,26.3,83.9,25.5,84.1z"/>
	<path class="st1" d="M68.4,36L60,27.6l0.5-0.9c0.6-1,0.8-2.3,0.5-3.5s-1.1-2.2-2.1-2.8l-11-6.4c0.1-2.1-1.2-4.2-3.4-4.8L28.8,4.8
		C28.8,2.2,26.6,0,24,0H4.8C2.2,0,0,2.2,0,4.8v75.3C0,82.8,2.2,85,4.8,85h19H24l0,0c0.2,0,0.5,0,0.7-0.1c0.5-0.1,1-0.3,1.5-0.5
		c0.6-0.3,1.1-0.8,1.5-1.4c-0.6,0.5-1.4,0.9-2.1,1c-0.3,0.1-0.7,0.1-1,0.1c-1.1,0-2.1-0.4-2.9-1.1L21.4,83h-5.1H4.8
		C3.3,83,2,81.7,2,80.2v-1.9v-9.1V4.8C2,3.3,3.3,2,4.8,2H24c1.4,0,2.5,1,2.8,2.2c0,0.2,0.1,0.4,0.1,0.6v1.5v21.1v4V43v2.8v34
		l-0.3,1.2c0,0.1-0.1,0.2-0.1,0.3l0.3-0.3l0.3-0.3l-0.1,0.2c-0.1,0.2-0.2,0.3-0.4,0.5c-0.1,0.1-0.2,0.2-0.3,0.3
		c-0.2,0.4-0.6,0.7-1,1c-0.1,0.1-0.3,0.1-0.4,0.2c-0.2,0-0.3,0.1-0.5,0.1c-0.1,0-0.1,0-0.2,0c0,0-0.1,0-0.1,0h-2.5
		c0.1,0.1,0.1,0.1,0.2,0.1l0.8,0.4c0.7,0.4,1.5,0.6,2.3,0.6c0.3,0,0.6,0,0.8-0.1c0.8-0.2,1.5-0.6,2.1-1.2l0.4-0.4
		c0.2-0.3,0.3-0.6,0.4-1l0.4-1.5v-1.2l0.5-0.5l-0.5,1.7v0c0,0.7-0.2,1.4-0.5,2.1l0.2-0.2l39.8-39.8C70.1,40.5,70.1,37.7,68.4,36z
		 M47.4,16.2l10.5,6.1c1.2,0.7,1.6,2.3,0.9,3.5l-0.2,0.4l-1,1.8L30.3,75l13.3-46l1.2-4L47.4,16.2z M28.8,73V43.8V41V28v-4v-17
		l10.8,3.1l2.2,0.6l2.1,0.6c0.8,0.2,1.4,0.8,1.7,1.6c0.2,0.5,0.3,1.1,0.1,1.7l-0.2,0.5L41.9,28l-1.2,4L28.8,73z M67,40.8L32.5,75.3
		L59,29.4l8,8C67.9,38.3,67.9,39.8,67,40.8z"/>
	<circle class="st2" cx="14.5" cy="76" r="3"/>
	<rect x="2" y="13" class="st3" width="24.8" height="11"/>
	<rect x="2" y="25.8" class="st3" width="24.8" height="11"/>
	<rect x="2" y="38.6" class="st3" width="24.8" height="11"/>
	<rect x="2" y="51.3" class="st3" width="24.8" height="11"/>
</g>
</svg>
