<?xml version="1.0" encoding="utf-8"?>
<!-- Generator: Adobe Illustrator 20.0.0, SVG Export Plug-In . SVG Version: 6.00 Build 0)  -->
<svg version="1.1" id="Layer_1" xmlns="http://www.w3.org/2000/svg" xmlns:xlink="http://www.w3.org/1999/xlink" x="0px" y="0px"
	 width="484.1px" height="500.7px" viewBox="0 0 484.1 500.7" style="enable-background:new 0 0 484.1 500.7;" xml:space="preserve"
	>
<style type="text/css">
	.st0{fill:none;}
	.st1{fill:#231F20;}
	.st2{fill:none;stroke:#00A651;stroke-width:4;stroke-linejoin:round;stroke-miterlimit:10;}
	.st3{fill:none;stroke:#00AEEF;stroke-width:4;stroke-linejoin:round;stroke-miterlimit:10;}
	.st4{fill:none;stroke:#EE2A2B;stroke-width:4;stroke-linejoin:round;stroke-miterlimit:10;}
	.st5{enable-background:new    ;}
	.st6{fill:#2CB34A;}
	.st7{fill:#00AEEF;}
	.st8{fill:#EE2A2B;}
</style>
<g>
	<path class="st0" d="M111.9,206.8l-75.2-77.6c-2.4,3.6-4.1,6.3-5,7.8l74.3,77.2L111.9,206.8z"/>
	<path class="st0" d="M118.7,198.2c4.1-17.2,17.4-83.4-7.1-138.1c-35.3,17.8-60.3,48.1-72.4,65.3l75.5,77.9L118.7,198.2z"/>
	<path class="st0" d="M130.3,143.9c-0.9,26.6-5.5,48.2-7.5,56.3c-0.3,1.3-0.6,2.3-0.7,2.8c9,30.2,17.8,83.7,9.4,167.7
		c-4.4,43.9-11.8,78.5-13.8,87.1c48.9,14.3,121.2,11.6,124.3,11.5h0.1h0.1c3.1,0.1,75.4,2.8,124.3-11.5c-1.9-8.6-9.3-43.2-13.8-87.1
		c-8.4-84,0.4-137.5,9.4-167.7c-0.2-0.6-0.4-1.5-0.7-2.8c-2-8.1-6.6-29.6-7.5-56.3c-0.8-26.3,2-57.5,14.7-85.8
		c0-0.1,0.1-0.2,0.1-0.3c-2.2-1.5-5.8-3.4-10.8-5.5c-11-4.8-29.1-10.9-55.7-16.7c-4.1,2.5-23.2,12.5-60.1,12.5
		c-33,0-55.6-10.4-60-12.6c-26.6,5.8-44.8,11.9-55.8,16.7c-5,2.2-8.6,4.1-10.8,5.5c0,0.1,0.1,0.2,0.1,0.3
		C128.3,86.4,131.2,117.6,130.3,143.9z"/>
	<path class="st0" d="M295.3,34.2c-2.3-0.5-4.7-0.9-7.1-1.4c-3.9,1.2-26.1,8-46,7.1h-0.1l0,0H242c-19.8,0.9-42.1-5.9-46-7.1
		c-2.2,0.4-4.3,0.8-6.4,1.3c9.2,3.7,28,9.7,52.5,9.7C269.9,43.8,287.3,37.8,295.3,34.2z"/>
	<path class="st0" d="M378.2,214.2l74.3-77.2c-0.9-1.5-2.6-4.3-5-7.8l-75.2,77.6L378.2,214.2z"/>
	<path class="st0" d="M365.4,198.2l4.1,5.1l75.5-77.9c-12.2-17.2-37.2-47.5-72.4-65.4C348,114.7,361.2,180.9,365.4,198.2z"/>
	<path class="st1" d="M106.1,219.8L106.1,219.8c0.7,0,1.3-0.3,1.7-0.8l10.5-13.1c29.9,103-5,251.5-5.4,253c-0.3,1.1,0.4,2.3,1.5,2.6
		c49.2,15,123.4,12.4,127.6,12.3c1.2,0,7.6,0.3,17.2,0.3c25.7,0,74.7-1.6,110.4-12.5c1.1-0.3,1.8-1.5,1.5-2.6
		c-0.4-1.5-35.2-150-5.4-253l10.5,13.1c0.4,0.5,1,0.8,1.6,0.8h0.1c0.6,0,1.2-0.2,1.6-0.7l77.2-80.3c0.7-0.7,0.8-1.8,0.3-2.6
		c-0.1-0.2-2.6-4.6-7.4-11.5c-0.1-0.2-0.3-0.5-0.5-0.7c-12.4-17.7-39-50.5-76.9-69c-2.7-2-19.7-13.1-70.2-23.9l0,0c0,0,0,0-0.1,0
		l0,0c-4.3-0.9-8.9-1.9-13.7-2.8c-0.4-0.1-0.8,0-1.1,0.1c-0.2,0.1-24.4,8-44.9,7.1c-0.1,0-0.2,0-0.4,0l0,0h-0.1c-0.2,0-0.3,0-0.4,0
		c-20.5,0.9-44.5-7-44.7-7.1c-0.4-0.1-0.7-0.1-1.1-0.1c-61.3,11.7-81,24.6-84,26.7c-38,18.5-64.6,51.2-76.9,69
		c-0.2,0.2-0.4,0.4-0.5,0.7l0,0c-4.8,6.9-7.3,11.3-7.4,11.5c-0.5,0.8-0.3,1.9,0.3,2.6l77.2,80.3
		C104.9,219.5,105.5,219.8,106.1,219.8z M452.5,137l-74.3,77.2l-6-7.4l75.2-77.6C449.9,132.7,451.6,135.4,452.5,137z M372.5,60.1
		c35.3,17.8,60.3,48.1,72.4,65.4l-75.5,77.9l-4.1-5.1C361.2,180.9,348,114.7,372.5,60.1z M195.9,32.8c3.9,1.2,26.2,8,46,7.1h0.1l0,0
		h0.1c19.9,0.9,42.1-5.9,46-7.1c2.4,0.5,4.8,0.9,7.1,1.4c-8,3.6-25.4,9.6-53.2,9.6c-24.5,0-43.4-6.1-52.5-9.7
		C191.6,33.6,193.8,33.2,195.9,32.8z M126.2,52.3c11-4.8,29.2-10.9,55.8-16.7c4.4,2.2,27,12.6,60,12.6c36.9,0,56-10.1,60.1-12.5
		c26.6,5.8,44.7,11.9,55.7,16.7c5,2.2,8.6,4.1,10.8,5.5c0,0.1-0.1,0.2-0.1,0.3c-12.7,28.3-15.6,59.5-14.7,85.8
		c0.9,26.6,5.5,48.1,7.5,56.3c0.3,1.3,0.6,2.3,0.7,2.8c-9,30.2-17.8,83.7-9.4,167.7c4.4,43.9,11.8,78.5,13.8,87.1
		c-48.9,14.3-121.2,11.6-124.3,11.5H242h-0.1c-3.1,0.1-75.4,2.8-124.3-11.5c1.9-8.6,9.3-43.2,13.8-87.1c8.4-84-0.4-137.5-9.4-167.7
		c0.2-0.6,0.4-1.5,0.7-2.8c2-8.1,6.6-29.6,7.5-56.3c0.8-26.3-2-57.5-14.7-85.7c0-0.1-0.1-0.2-0.1-0.3
		C117.7,56.4,121.2,54.5,126.2,52.3z M111.6,60.1c24.5,54.7,11.3,120.9,7.1,138.1l-4.1,5.1l-75.5-77.9
		C51.4,108.2,76.3,77.9,111.6,60.1z M36.6,129.1l75.2,77.6l-6,7.4L31.6,137C32.5,135.4,34.2,132.7,36.6,129.1z"/>
	<g>
		<rect x="149.3" y="80.9" class="st2" width="188.3" height="323.9"/>
		<rect x="163.8" y="106.8" class="st3" width="159.8" height="238.5"/>
		<rect x="163.8" y="106.8" class="st4" width="159.8" height="61.9"/>
		<g class="st5">
			<path class="st6" d="M243.8,391.2v1.2c0,2.2-1,3.2-3.1,3.2h-1.6c-2,0-3.1-1.1-3.1-3.2v-12.6c0-2.2,1-3.2,3.1-3.2h1.6
				c2,0,3.1,1.1,3.1,3.2v2.2h-2.5v-2c0-0.7-0.4-1.1-1.1-1.1h-0.5c-0.7,0-1,0.4-1,1.1v12.2c0,0.7,0.3,1.1,1,1.1h0.6
				c0.7,0,1-0.4,1-1.1v-1H243.8z"/>
		</g>
		<g class="st5">
			<path class="st7" d="M243.5,324c1.4,0.4,2.1,1.1,2.1,2.2v4.8c0,1.9-1,2.8-2.9,2.8h-5.1v-19.1h4.4c2.3,0,3.4,1.2,3.4,3.5v3.7
				c0,1.1-0.6,1.8-1.8,2V324z M240.1,322.8h1.2c1,0,1.5-0.5,1.5-1.4v-3c0-0.9-0.4-1.4-1.1-1.4h-1.5V322.8z M240.1,331.5h1.9
				c0.7,0,1-0.3,1-0.8v-4.2c0-0.9-0.5-1.4-1.5-1.4h-1.4V331.5z"/>
		</g>
		<g class="st5">
			<path class="st8" d="M243.9,158.6h-2.5v-15.8c0-2.2,1-3.3,3.1-3.3h1.9c2,0,3.1,1.1,3.1,3.3v15.8h-2.5v-7h-2.9V158.6z
				 M246.9,149.3V143c0-0.7-0.4-1.1-1.1-1.1h-0.7c-0.7,0-1.1,0.4-1.1,1.1v6.3H246.9z"/>
		</g>
		<g class="st5">
		</g>
	</g>
	<g>
		<g class="st5">
		</g>
		<g class="st5">
		</g>
	</g>
</g>
</svg>
